Exploring and understanding the individual experience from longitudinal data, or…
…
## Key Concepts:

.large[
Record important time series information once, and use it many times in other places

- We add information about **index** + **key**
  - Index = Year
  - Key = Country
]
---

.large[

```
## # A tsibble: 1,499 x 4 [!]
## # Key:       country [153]
##   country      year height_cm continent
##   <chr>       <dbl>     <dbl> <chr>    
## 1 Afghanistan  1870      168. Asia     
## 2 Afghanistan  1880      166. Asia     
## 3 Afghanistan  1930      167. Asia     
## 4 Afghanistan  1990      167. Asia     
## 5 Afghanistan  2000      161. Asia     
## 6 Albania      1880      170. Europe   
## # … with 1,493 more rows
```
…
.large[
... sampling needs to select not random rows of the data, but the **keys - the countries**.
]

---

# `sample_n_keys()` to sample ... **keys**

```r
sample_n_keys(heights, 5)
```

```
## # A tsibble: 35 x 4 [!]
## # Key:       country [5]
##   country     year height_cm continent
##   <chr>      <dbl>     <dbl> <chr>    
## 1 Azerbaijan  1850      170. Asia     
## 2 Azerbaijan  1860      171. Asia     
## 3 Azerbaijan  1950      171. Asia     
## 4 Azerbaijan  1960      172. Asia     
## 5 Azerbaijan  1970      172. Asia     
## 6 Azerbaijan  1980      172. Asia     
## # … with 29 more rows
```
…
<img src="figures/show-red-all-again-1.png" width="936" style="display: block; margin: auto;" />

---
class: inverse, middle, cetner

.vhuge[
Let's see that **one more time**, but with the data
]

---

## Identify features: summarise down to one observation

```
## # A tsibble: 1,499 x 4 [!]
## # Key:       country [153]
##    country      year height_cm continent
##    <chr>       <dbl>     <dbl> <chr>    
##  1 Afghanistan  1870      168. Asia     
##  2 Afghanistan  1880      166. Asia     
##  3 Afghanistan  1930      167. Asia     
##  4 Afghanistan  1990      167. Asia     
##  5 Afghanistan  2000      161. Asia     
##  6 Albania      1880      170. Europe   
##  7 Albania      1890      170. Europe   
##  8 Albania      1900      169. Europe   
##  9 Albania      2000      168. Europe   
## 10 Algeria      1910      169. Africa   
## # … with 1,489 more rows
```

---

## Identify features: summarise down to one observation

```
## # A tibble: 153 x 6
##    country       min   q25   med   q75   max
##    <chr>       <dbl> <dbl> <dbl> <dbl> <dbl>
##  1 Afghanistan  161.  164.  167.  168.  168.
##  2 Albania      168.  168.  170.  170.  170.
##  3 Algeria      166.  168.  169   170.  171.
##  4 Angola       159.  160.  167.  168.  169.
##  5 Argentina    167.  168.  168.  170.  174.
##  6 Armenia      164.  166.  169.  172.  172.
##  7 Australia    170   171.  172.  173.  178.
##  8 Austria      162.  164.  167.  169.  179.
##  9 Azerbaijan   170.  171.  172.  172.  172.
## 10 Bahrain      161.  161.  164.  164.  164 
## # … with 143 more rows
```
…
---

## Join summaries back to data

```r
heights_five %>% 
  filter(max == max(max) | max == min(max)) %>% 
  left_join(heights, by = "country")
```

```
## # A tibble: 21 x 9
##    country   min   q25   med   q75   max  year height_cm continent
##    <chr>   <dbl> <dbl> <dbl> <dbl> <dbl> <dbl>     <dbl> <chr>    
##  1 Denmark  165.  168.  170.  178.  183.  1820      167. Europe   
##  2 Denmark  165.  168.  170.  178.  183.  1830      165. Europe   
##  3 Denmark  165.  168.  170.  178.  183.  1850      167. Europe   
##  4 Denmark  165.  168.  170.  178.  183.  1860      168. Europe   
##  5 Denmark  165.  168.  170.  178.  183.  1870      168. Europe   
##  6 Denmark  165.  168.  170.  178.  183.  1880      170. Europe   
##  7 Denmark  165.  168.  170.  178.  183.  1890      169. Europe   
##  8 Denmark  165.  168.  170.  178.  183.  1900      170. Europe   
##  9 Denmark  165.  168.  170.  178.  183.  1910      170  Europe   
## 10 Denmark  165.  168.  170.  178.  183.  1920      174. Europe   
## # … with 11 more rows
```
…
<img src="gifs/dog-solve-problem.gif" width="70%" style="display: block; margin: auto;" />

---

## Identify features: one per **key** <img src="https://feasts.tidyverts.org/reference/figures/logo.png" align="right" height=140/>

```r
heights %>%
* features(height_cm,
*          feat_five_num)
```

```
## # A tibble: 153 x 6
##   country       min   q25   med   q75   max
##   <chr>       <dbl> <dbl> <dbl> <dbl> <dbl>
## 1 Afghanistan  161.  164.  167.  168.  168.
## 2 Albania      168.  168.  170.  170.  170.
## 3 Algeria      166.  168.  169   170.  171.
## 4 Angola       159.  160.  167.  168.  169.
## 5 Argentina    167.  168.  168.  170.  174.
## 6 Armenia      164.  166.  169.  172.  172.
## # … with 147 more rows
```
…
## features: Summaries that are **aware of data structure** <img src="https://feasts.tidyverts.org/reference/figures/logo.png" align="right" height=140/>

--

```r
heights %>%
  features(height_cm, #<< # variable we want to summarise
           feat_five_num) #<< # feature to calculate
```

--

```
## # A tibble: 153 x 6
##   country       min   q25   med   q75   max
##   <chr>       <dbl> <dbl> <dbl> <dbl> <dbl>
## 1 Afghanistan  161.  164.  167.  168.  168.
## 2 Albania      168.  168.  170.  170.  170.
## 3 Algeria      166.  168.  169   170.  171.
## 4 Angola       159.  160.  167.  168.  169.
## 5 Argentina    167.  168.  168.  170.  174.
## 6 Armenia      164.  166.  169.  172.  172.
## # … with 147 more rows
```
…
---
class: middle, center
# Other available `features()` in `brolgar` 

---

## What is the range of the data? `feat_ranges`

```r
heights %>%
  features(height_cm, feat_ranges)
```

```
## # A tibble: 153 x 5
##    country       min   max range_diff   iqr
##    <chr>       <dbl> <dbl>      <dbl> <dbl>
##  1 Afghanistan  161.  168.       7     3.27
##  2 Albania      168.  170.       2.20  1.53
##  3 Algeria      166.  171.       5.06  2.15
##  4 Angola       159.  169.      10.5   7.87
##  5 Argentina    167.  174.       7     2.21
##  6 Armenia      164.  172.       8.82  5.30
##  7 Australia    170   178.       8.4   2.58
##  8 Austria      162.  179.      17.2   5.35
##  9 Azerbaijan   170.  172.       1.97  1.12
## 10 Bahrain      161.  164        3.3   2.75
## # … with 143 more rows
```

---

## Does my data only increase or decrease? `feat_monotonic`

```r
heights %>%
  features(height_cm, feat_monotonic)
```

```
## # A tibble: 153 x 5
##    country     increase decrease unvary monotonic
##    <chr>       <lgl>    <lgl>    <lgl>  <lgl>    
##  1 Afghanistan FALSE    FALSE    FALSE  FALSE    
##  2 Albania     FALSE    TRUE     FALSE  TRUE     
##  3 Algeria     FALSE    FALSE    FALSE  FALSE    
##  4 Angola      FALSE    FALSE    FALSE  FALSE    
##  5 Argentina   FALSE    FALSE    FALSE  FALSE    
##  6 Armenia     FALSE    FALSE    FALSE  FALSE    
##  7 Australia   FALSE    FALSE    FALSE  FALSE    
##  8 Austria     FALSE    FALSE    FALSE  FALSE    
##  9 Azerbaijan  FALSE    FALSE    FALSE  FALSE    
## 10 Bahrain     TRUE     FALSE    FALSE  TRUE     
## # … with 143 more rows
```

---

## What is the spread of my data? `feat_spread`

```r
heights %>%
  features(height_cm, feat_spread)
```

```
## # A tibble: 153 x 5
##    country        var    sd   mad   iqr
##    <chr>        <dbl> <dbl> <dbl> <dbl>
##  1 Afghanistan  7.20  2.68  1.65   3.27
##  2 Albania      0.950 0.975 0.667  1.53
##  3 Algeria      3.30  1.82  0.741  2.15
##  4 Angola      16.9   4.12  3.11   7.87
##  5 Argentina    2.89  1.70  1.36   2.21
##  6 Armenia     10.6   3.26  3.60   5.30
##  7 Australia    7.63  2.76  1.66   2.58
##  8 Austria     26.6   5.16  3.93   5.35
##  9 Azerbaijan   0.516 0.718 0.621  1.12
## 10 Bahrain      3.42  1.85  0.297  2.75
## # … with 143 more rows
```
…
```r
heights_fit <- lmer(height_cm ~ year + (1|country), heights)

heights_aug <- heights %>%
  add_predictions(heights_fit, var = "pred") %>%
  add_residuals(heights_fit, var = "res")
```

---

# Problem #3: How do I **understand** my statistical model

```
## # A tsibble: 1,499 x 6 [!]
## # Key:       country [153]
##    country      year height_cm continent  pred    res
##    <chr>       <dbl>     <dbl> <chr>     <dbl>  <dbl>
##  1 Afghanistan  1870      168. Asia       164.  4.58 
##  2 Afghanistan  1880      166. Asia       164.  1.51 
##  3 Afghanistan  1930      167. Asia       166.  0.815
##  4 Afghanistan  1990      167. Asia       168. -1.05 
##  5 Afghanistan  2000      161. Asia       169. -7.11 
##  6 Albania      1880      170. Europe     168.  2.40 
##  7 Albania      1890      170. Europe     168.  1.74 
##  8 Albania      1900      169. Europe     168.  0.775
##  9 Albania      2000      168. Europe     172. -4.13 
## 10 Algeria      1910      169. Africa     168.  1.28 
## # … with 1,489 more rows
```
…
